<?xml version="1.0" encoding="UTF-8" standalone="no"?>
<!-- Created with Inkscape (http://www.inkscape.org/) -->

<svg
   xmlns:dc="http://purl.org/dc/elements/1.1/"
   xmlns:cc="http://creativecommons.org/ns#"
   xmlns:rdf="http://www.w3.org/1999/02/22-rdf-syntax-ns#"
   xmlns:svg="http://www.w3.org/2000/svg"
   xmlns="http://www.w3.org/2000/svg"
   xmlns:sodipodi="http://sodipodi.sourceforge.net/DTD/sodipodi-0.dtd"
   xmlns:inkscape="http://www.inkscape.org/namespaces/inkscape"
   width="210mm"
   height="297mm"
   viewBox="0 0 210 297"
   version="1.1"
   id="svg8"
   inkscape:version="0.92.5 (2060ec1f9f, 2020-04-08)"
   sodipodi:docname="petersen2.svg"
   inkscape:export-filename="/home/julian/2021-crm-course/images/petersen1.png"
   inkscape:export-xdpi="96"
   inkscape:export-ydpi="96">
  <defs
     id="defs2" />
  <sodipodi:namedview
     id="base"
     pagecolor="#ffffff"
     bordercolor="#666666"
     borderopacity="1.0"
     inkscape:pageopacity="0.0"
     inkscape:pageshadow="2"
     inkscape:zoom="0.98994949"
     inkscape:cx="405.01673"
     inkscape:cy="560"
     inkscape:document-units="mm"
     inkscape:current-layer="layer1"
     showgrid="false"
     inkscape:window-width="1366"
     inkscape:window-height="711"
     inkscape:window-x="0"
     inkscape:window-y="0"
     inkscape:window-maximized="1" />
  <metadata
     id="metadata5">
    <rdf:RDF>
      <cc:Work
         rdf:about="">
        <dc:format>image/svg+xml</dc:format>
        <dc:type
           rdf:resource="http://purl.org/dc/dcmitype/StillImage" />
        <dc:title></dc:title>
      </cc:Work>
    </rdf:RDF>
  </metadata>
  <g
     inkscape:label="Layer 1"
     inkscape:groupmode="layer"
     id="layer1">
    <text
       xml:space="preserve"
       style="font-style:normal;font-weight:normal;font-size:5.64444447px;line-height:1.25;font-family:sans-serif;letter-spacing:0px;word-spacing:0px;fill:#ff0000;fill-opacity:1;stroke:#ff0000;stroke-width:0.26458332;"
       x="99.51873"
       y="102.53323"
       id="text821"><tspan
         sodipodi:role="line"
         id="tspan819"
         x="99.51873"
         y="102.53323"
         style="font-size:5.64444447px;stroke:#ff0000;stroke-width:0.26458332;fill:#ff0000;">H(id)</tspan></text>
    <text
       xml:space="preserve"
       style="font-style:normal;font-weight:normal;font-size:10.58333302px;line-height:1.25;font-family:sans-serif;letter-spacing:0px;word-spacing:0px;fill:#000000;fill-opacity:1;stroke:none;stroke-width:0.26458332"
       x="141.38557"
       y="130.75835"
       id="text825"><tspan
         sodipodi:role="line"
         id="tspan823"
         x="141.38557"
         y="140.12212"
         style="stroke-width:0.26458332"></tspan></text>
    <text
       xml:space="preserve"
       style="font-style:normal;font-weight:normal;font-size:5.64444447px;line-height:1.25;font-family:sans-serif;letter-spacing:0px;word-spacing:0px;fill:#ff0000;fill-opacity:1;stroke:#ff0000;stroke-width:0.26458332;"
       x="141.38557"
       y="130.75835"
       id="text829"><tspan
         sodipodi:role="line"
         id="tspan827"
         x="141.38557"
         y="130.75835"
         style="stroke-width:0.26458332;stroke:#ff0000;fill:#ff0000;">H(13524)</tspan></text>
    <text
       xml:space="preserve"
       style="font-style:normal;font-weight:normal;font-size:5.64444447px;line-height:1.25;font-family:sans-serif;letter-spacing:0px;word-spacing:0px;fill:#ff0000;fill-opacity:1;stroke:#ff0000;stroke-width:0.26458332;"
       x="127.47946"
       y="179.29813"
       id="text833"><tspan
         sodipodi:role="line"
         id="tspan831"
         x="127.47946"
         y="179.29813"
         style="stroke-width:0.26458332;fill:#ff0000;stroke:#ff0000;">H(34)</tspan></text>
    <text
       xml:space="preserve"
       style="font-style:normal;font-weight:normal;font-size:5.64444447px;line-height:1.25;font-family:sans-serif;letter-spacing:0px;word-spacing:0px;fill:#ff0000;fill-opacity:1;stroke:#ff0000;stroke-width:0.26458332"
       x="64.99102"
       y="181.33952"
       id="text837"><tspan
         sodipodi:role="line"
         id="tspan835"
         x="64.99102"
         y="181.33952"
         style="fill:#ff0000;stroke:#ff0000;stroke-width:0.26458332">H(12354)</tspan></text>
    <text
       xml:space="preserve"
       style="font-style:normal;font-weight:normal;font-size:5.64444447px;line-height:1.25;font-family:sans-serif;letter-spacing:0px;word-spacing:0px;fill:#ff0000;fill-opacity:1;stroke:#ff0000;stroke-width:0.26458332"
       x="51.184853"
       y="127.74899"
       id="text841"><tspan
         sodipodi:role="line"
         id="tspan839"
         x="51.184853"
         y="127.74899"
         style="fill:#ff0000;stroke:#ff0000;stroke-width:0.26458332">H(24)(35)</tspan></text>
    <text
       xml:space="preserve"
       style="font-style:normal;font-weight:normal;font-size:5.64444447px;line-height:1.25;font-family:sans-serif;letter-spacing:0px;word-spacing:0px;fill:#ff0000;fill-opacity:1;stroke:#ff0000;stroke-width:0.26458332"
       x="90.845657"
       y="126.22145"
       id="text845"><tspan
         sodipodi:role="line"
         id="tspan843"
         x="90.845657"
         y="126.22145"
         style="fill:#ff0000;stroke:#ff0000;stroke-width:0.26458332">H(124)(35)</tspan></text>
    <text
       xml:space="preserve"
       style="font-style:normal;font-weight:normal;font-size:5.64444447px;line-height:1.25;font-family:sans-serif;letter-spacing:0px;word-spacing:0px;fill:#ff0000;fill-opacity:1;stroke:#ff0000;stroke-width:0.26458332"
       x="115.99497"
       y="138.77644"
       id="text849"><tspan
         sodipodi:role="line"
         id="tspan847"
         x="115.99497"
         y="138.77644"
         style="fill:#ff0000;stroke:#ff0000;stroke-width:0.26458332">H(354)</tspan></text>
    <text
       xml:space="preserve"
       style="font-style:normal;font-weight:normal;font-size:5.64444447px;line-height:1.25;font-family:sans-serif;letter-spacing:0px;word-spacing:0px;fill:#ff0000;fill-opacity:1;stroke:#ff0000;stroke-width:0.26458332;"
       x="111.89275"
       y="159.28673"
       id="text853"><tspan
         sodipodi:role="line"
         id="tspan851"
         x="111.89275"
         y="159.28673"
         style="stroke-width:0.26458332;stroke:#ff0000;fill:#ff0000;">H(2354)</tspan></text>
    <text
       xml:space="preserve"
       style="font-style:normal;font-weight:normal;font-size:5.64444447px;line-height:1.25;font-family:sans-serif;letter-spacing:0px;word-spacing:0px;fill:#ff0000;fill-opacity:1;stroke:#ff0000;stroke-width:0.26458332"
       x="85.457291"
       y="158.61469"
       id="text857"><tspan
         sodipodi:role="line"
         id="tspan855"
         x="85.457291"
         y="158.61469"
         style="fill:#ff0000;stroke:#ff0000;stroke-width:0.26458332">H(234)</tspan></text>
    <text
       xml:space="preserve"
       style="font-style:normal;font-weight:normal;font-size:5.64444447px;line-height:1.25;font-family:sans-serif;letter-spacing:0px;word-spacing:0px;fill:#ff0000;fill-opacity:1;stroke:#ff0000;stroke-width:0.26458332"
       x="77.429008"
       y="138.7843"
       id="text861"><tspan
         sodipodi:role="line"
         id="tspan859"
         x="77.429008"
         y="138.7843"
         style="fill:#ff0000;stroke:#ff0000;stroke-width:0.26458332">H(1234)</tspan></text>
    <path
       style="fill:none;stroke:#000000;stroke-width:0.26458332px;stroke-linecap:butt;stroke-linejoin:miter;stroke-opacity:1"
       d="m 114.65863,104.83321 25.12333,18.4416"
       id="path863"
       inkscape:connector-curvature="0" />
    <path
       style="fill:none;stroke:#000000;stroke-width:0.26458332px;stroke-linecap:butt;stroke-linejoin:miter;stroke-opacity:1"
       d="m 145.66189,136.37101 c -0.26727,1.33635 -9.08716,35.27958 -9.08716,35.27958"
       id="path865"
       inkscape:connector-curvature="0" />
    <path
       style="fill:none;stroke:#000000;stroke-width:0.26458332px;stroke-linecap:butt;stroke-linejoin:miter;stroke-opacity:1"
       d="M 121.60763,179.66868 93.544333,179.40141"
       id="path867"
       inkscape:connector-curvature="0" />
    <path
       style="fill:none;stroke:#000000;stroke-width:0.26458332px;stroke-linecap:butt;stroke-linejoin:miter;stroke-opacity:1"
       d="M 73.23185,174.59055 66.015572,133.96559"
       id="path869"
       inkscape:connector-curvature="0"
       sodipodi:nodetypes="cc" />
    <path
       style="fill:none;stroke:#000000;stroke-width:0.26458332px;stroke-linecap:butt;stroke-linejoin:miter;stroke-opacity:1"
       d="M 70.024616,121.93845 96.484299,102.42778"
       id="path871"
       inkscape:connector-curvature="0"
       sodipodi:nodetypes="cc" />
    <path
       style="fill:none;stroke:#000000;stroke-width:0.26458332px;stroke-linecap:butt;stroke-linejoin:miter;stroke-opacity:1"
       d="m 105.83873,106.43683 -0.53454,12.56166"
       id="path873"
       inkscape:connector-curvature="0" />
    <path
       style="fill:none;stroke:#000000;stroke-width:0.26458332px;stroke-linecap:butt;stroke-linejoin:miter;stroke-opacity:1"
       d="m 131.22934,132.89651 7.75081,-2.93997"
       id="path875"
       inkscape:connector-curvature="0" />
    <path
       style="fill:none;stroke:#000000;stroke-width:0.26458332px;stroke-linecap:butt;stroke-linejoin:miter;stroke-opacity:1"
       d="m 121.8749,162.29616 5.34539,9.08716"
       id="path877"
       inkscape:connector-curvature="0"
       sodipodi:nodetypes="cc" />
    <path
       style="fill:none;stroke:#000000;stroke-width:0.26458332px;stroke-linecap:butt;stroke-linejoin:miter;stroke-opacity:1"
       d="m 91.406177,162.56342 -6.147199,9.88898"
       id="path879"
       inkscape:connector-curvature="0" />
    <path
       style="fill:none;stroke:#000000;stroke-width:0.26458332px;stroke-linecap:butt;stroke-linejoin:miter;stroke-opacity:1"
       d="m 80.448128,133.69832 -8.285357,-4.27631"
       id="path881"
       inkscape:connector-curvature="0"
       sodipodi:nodetypes="cc" />
    <path
       style="fill:none;stroke:#000000;stroke-width:0.26458332px;stroke-linecap:butt;stroke-linejoin:miter;stroke-opacity:1"
       d="m 105.57146,129.15474 8.8199,22.18337 -18.976139,-14.43256 20.312489,0.26727 -17.639793,13.89802 z"
       id="path883"
       inkscape:connector-curvature="0"
       sodipodi:nodetypes="cccccc" />
  </g>
</svg>
